{
  "type": "service_account",
  "project_id": "scp-cauca",
  "private_key_id": "4664e15ad8d7fc94785676a04272200e197eed72",
  "private_key": "-----BEGIN PRIVATE KEY-----\nMIIEvgIBADANBgkqhkiG9w0BAQEFAASCBKgwggSkAgEAAoIBAQCkWcAdkULAjjHl\npr/BM35PMt7VJO6IvHPD2/i2hx+iVfCN9jkjqt+UTtoOBXdjTCDilBaWLebBn2pP\niq59TBokrHqsYhtitYaDpLKkP5GJH0PnOTejzN0HkpjPacFp/SUjCCsqaAKDsrPA\n8SE18Zxh0cH7M363sG8LKe0PFC77OhZs8OcMhWNpweayfTBq3Ikk2OEjpka+YldT\nBx/Rsv2lUOnLYqG0s1qzlL2Y0rdNseqEODoPP7a9C1e/T9hSwgNvV+Um8vuuwqnV\nyKk7d7b7ODiopiKGlb3j/6jy3fLNTzhodyUkCUEvfxxU3f8eh2o9S94bn1Mvgc1N\npuU1p+itAgMBAAECggEAAZCrdnkQqciNUqY3/CfN8ASzABuFJuYzpVv1ByqhJQxJ\nIkgSGwJLPFVUWLfWKgA/7bMfG3+vvTcwbafu/wQGoJk5rBEIAC1sXp/myWSHXGN9\nR0bDNzeQHYPKbzHkS/jf9OJy6zsFOjiCqmJFB7Il5BnrYqkjNsqbrP9t/ivEs6hs\nmoMhqEolDpkU79WT6P+U2Ax6Et4646MRks8wqlgepuGyx79QLawJyUMljKM68ZzJ\nB8OaVJn2Fa0mw1fQihZJrlg7zVY7a/n2Y7RI2qUXR6j1SliQ3FYHurBrOkpkTvUn\nGtTWmeUFx3R7kEBs4jO9cdzzWBANuAhjf77MWIKu/QKBgQDR8BX3knQcdtYatPTu\nFinY6Gpa+R93a9LL4xB20PreBeZPHhf/kmjUkMxF6YlsRRXnfphCiHN6T2fcbabU\nRHs3Cycebs3pUIcX9/VifANqWUFRojhbv4/PZ6nf21wlIK2mCUcAekNgEvB6/yj1\n8GxrkR7k8pJOYeyGX0R62OZRrwKBgQDIaRfBXRI6kQ7mGB6sYKpGps+kSXwboCXz\nN92JEBNG6Jq7/g8v7T42e4wFGqmVnWOk6QRU9u6ATYB7QL4TFzBssikPLc7N6y2c\nNlSqUIuHQRvuMUiXyIa/ea0wTcMBNs98l9ETotzwF6oPMMuWBpvYmN8ixAc6o21F\navVQnz1OYwKBgQCVAplE+VGq5np/yFNVLqwTRpw+6DZ6eDDOAOQtwZVew8c9/vk/\nsPbxcblcIjAlhj/O6V8/UkTM2tG4dqgEYHsojaT9h95lrX/F9nzYo3d1I9cmD0N7\nc9OqfkToHHYh8Djw8gLQhveNmMPSOYwkTLtX+lB4ZuiL9BuDINmlbJDGBwKBgQCi\nFCw8G5NEflA4UkVsT3kmTn4bdbrDdM98Vi/6S1/rtu59H0kVD5+C3IQvFJMWBwWx\nNypjtJjKduNzyrZuJhDpt2RxfDCGZK6saVwrqZxONJ/sETuOVYR0kmk4aYtODg/b\nycQzR0G7gsfsJSBhItMjZu7+5N6b09Ppkkj3fPFN1QKBgDbOWbwa8DK1PLzL/6vY\nlhZy0Vg4NIOqoV2tamIrocRuKRqw0GF3O8zqY9JIAj0aItP1YIULOCbJwdFXzWzp\npHTOM5pPuXXE+22nV+FgWDpfZwmvAOsED69eF2FfTZESIl84eDUjsBBpHGFGLX3Z\nFlH4yR4BddgMPLuojomtZUM5\n-----END PRIVATE KEY-----\n",
  "client_email": "firebase-adminsdk-ojcr9@scp-cauca.iam.gserviceaccount.com",
  "client_id": "109652992697618622674",
  "auth_uri": "https://accounts.google.com/o/oauth2/auth",
  "token_uri": "https://oauth2.googleapis.com/token",
  "auth_provider_x509_cert_url": "https://www.googleapis.com/oauth2/v1/certs",
  "client_x509_cert_url": "https://www.googleapis.com/robot/v1/metadata/x509/firebase-adminsdk-ojcr9%40scp-cauca.iam.gserviceaccount.com"
}
